<svg xmlns="http://www.w3.org/2000/svg" width="43.965" height="16.02" viewBox="0 0 43.965 16.02">
  <path id="green-arrow" d="M294.307,1899.516l5.857-5.546H260.34v-2h39.841l-5.874-5.562,1.538-1.456,8.46,8.01-8.46,8.01Z" transform="translate(-260.34 -1884.952)" fill="#7fa9ae"/>
</svg>
